{
    "page": 2,
    "per_page": 3,
    "total": 12,
    "total_pages": 4,
    "data": [
        {
            "id": 4,
            "email": "eve.holt@reqres.in",
            "first_name": "Eve",
            "last_name": "Holt",
            "avatar": "https://s3.amazonaws.com/uifaces/faces/twitter/marcoramires/128.jpg"
        },
        {
            "id": 5,
            "email": "charles.morris@reqres.in",
            "first_name": "Charles",
            "last_name": "Morris",
            "avatar": "https://s3.amazonaws.com/uifaces/faces/twitter/stephenmoon/128.jpg"
        },
        {
            "id": 6,
            "email": "tracey.ramos@reqres.in",
            "first_name": "Tracey",
            "last_name": "Ramos",
            "avatar": "https://s3.amazonaws.com/uifaces/faces/twitter/bigmancho/128.jpg"
        }
    ]
}{
    "page": 4,
    "per_page": 3,
    "total": 12,
    "total_pages": 4,
    "data": [
        {
            "id": 10,
            "email": "byron.fields@reqres.in",
            "first_name": "Byron",
            "last_name": "Fields",
            "avatar": "https://s3.amazonaws.com/uifaces/faces/twitter/russoedu/128.jpg"
        },
        {
            "id": 11,
            "email": "george.edwards@reqres.in",
            "first_name": "George",
            "last_name": "Edwards",
            "avatar": "https://s3.amazonaws.com/uifaces/faces/twitter/mrmoiree/128.jpg"
        },
        {
            "id": 12,
            "email": "rachel.howell@reqres.in",
            "first_name": "Rachel",
            "last_name": "Howell",
            "avatar": "https://s3.amazonaws.com/uifaces/faces/twitter/hebertialmeida/128.jpg"
        }
    ]
}{
    "page": 6,
    "per_page": 3,
    "total": 12,
    "total_pages": 4,
    "data": []
}{
    "page": 8,
    "per_page": 3,
    "total": 12,
    "total_pages": 4,
    "data": []
}{
    "page": 10,
    "per_page": 3,
    "total": 12,
    "total_pages": 4,
    "data": []
}{
    "page": 12,
    "per_page": 3,
    "total": 12,
    "total_pages": 4,
    "data": []
}{
    "page": 14,
    "per_page": 3,
    "total": 12,
    "total_pages": 4,
    "data": []
}{
    "page": 16,
    "per_page": 3,
    "total": 12,
    "total_pages": 4,
    "data": []
}{
    "page": 18,
    "per_page": 3,
    "total": 12,
    "total_pages": 4,
    "data": []
}{
    "page": 20,
    "per_page": 3,
    "total": 12,
    "total_pages": 4,
    "data": []
}{
    "page": 22,
    "per_page": 3,
    "total": 12,
    "total_pages": 4,
    "data": []
}{
    "page": 24,
    "per_page": 3,
    "total": 12,
    "total_pages": 4,
    "data": []
}{
    "page": 26,
    "per_page": 3,
    "total": 12,
    "total_pages": 4,
    "data": []
}{
    "page": 28,
    "per_page": 3,
    "total": 12,
    "total_pages": 4,
    "data": []
}{
    "page": 30,
    "per_page": 3,
    "total": 12,
    "total_pages": 4,
    "data": []
}{
    "page": 32,
    "per_page": 3,
    "total": 12,
    "total_pages": 4,
    "data": []
}{
    "page": 34,
    "per_page": 3,
    "total": 12,
    "total_pages": 4,
    "data": []
}{
    "page": 36,
    "per_page": 3,
    "total": 12,
    "total_pages": 4,
    "data": []
}{
    "page": 38,
    "per_page": 3,
    "total": 12,
    "total_pages": 4,
    "data": []
}{
    "page": 40,
    "per_page": 3,
    "total": 12,
    "total_pages": 4,
    "data": []
}{
    "page": 42,
    "per_page": 3,
    "total": 12,
    "total_pages": 4,
    "data": []
}{
    "page": 44,
    "per_page": 3,
    "total": 12,
    "total_pages": 4,
    "data": []
}{
    "page": 46,
    "per_page": 3,
    "total": 12,
    "total_pages": 4,
    "data": []
}{
    "page": 2,
    "per_page": 3,
    "total": 12,
    "total_pages": 4,
    "data": [
        {
            "id": 4,
            "email": "eve.holt@reqres.in",
            "first_name": "Eve",
            "last_name": "Holt",
            "avatar": "https://s3.amazonaws.com/uifaces/faces/twitter/marcoramires/128.jpg"
        },
        {
            "id": 5,
            "email": "charles.morris@reqres.in",
            "first_name": "Charles",
            "last_name": "Morris",
            "avatar": "https://s3.amazonaws.com/uifaces/faces/twitter/stephenmoon/128.jpg"
        },
        {
            "id": 6,
            "email": "tracey.ramos@reqres.in",
            "first_name": "Tracey",
            "last_name": "Ramos",
            "avatar": "https://s3.amazonaws.com/uifaces/faces/twitter/bigmancho/128.jpg"
        }
    ]
}{
    "page": 4,
    "per_page": 3,
    "total": 12,
    "total_pages": 4,
    "data": [
        {
            "id": 10,
            "email": "byron.fields@reqres.in",
            "first_name": "Byron",
            "last_name": "Fields",
            "avatar": "https://s3.amazonaws.com/uifaces/faces/twitter/russoedu/128.jpg"
        },
        {
            "id": 11,
            "email": "george.edwards@reqres.in",
            "first_name": "George",
            "last_name": "Edwards",
            "avatar": "https://s3.amazonaws.com/uifaces/faces/twitter/mrmoiree/128.jpg"
        },
        {
            "id": 12,
            "email": "rachel.howell@reqres.in",
            "first_name": "Rachel",
            "last_name": "Howell",
            "avatar": "https://s3.amazonaws.com/uifaces/faces/twitter/hebertialmeida/128.jpg"
        }
    ]
}{
    "page": 6,
    "per_page": 3,
    "total": 12,
    "total_pages": 4,
    "data": []
}{
    "page": 2,
    "per_page": 3,
    "total": 12,
    "total_pages": 4,
    "data": [
        {
            "id": 4,
            "email": "eve.holt@reqres.in",
            "first_name": "Eve",
            "last_name": "Holt",
            "avatar": "https://s3.amazonaws.com/uifaces/faces/twitter/marcoramires/128.jpg"
        },
        {
            "id": 5,
            "email": "charles.morris@reqres.in",
            "first_name": "Charles",
            "last_name": "Morris",
            "avatar": "https://s3.amazonaws.com/uifaces/faces/twitter/stephenmoon/128.jpg"
        },
        {
            "id": 6,
            "email": "tracey.ramos@reqres.in",
            "first_name": "Tracey",
            "last_name": "Ramos",
            "avatar": "https://s3.amazonaws.com/uifaces/faces/twitter/bigmancho/128.jpg"
        }
    ]
}{
    "page": 4,
    "per_page": 3,
    "total": 12,
    "total_pages": 4,
    "data": [
        {
            "id": 10,
            "email": "byron.fields@reqres.in",
            "first_name": "Byron",
            "last_name": "Fields",
            "avatar": "https://s3.amazonaws.com/uifaces/faces/twitter/russoedu/128.jpg"
        },
        {
            "id": 11,
            "email": "george.edwards@reqres.in",
            "first_name": "George",
            "last_name": "Edwards",
            "avatar": "https://s3.amazonaws.com/uifaces/faces/twitter/mrmoiree/128.jpg"
        },
        {
            "id": 12,
            "email": "rachel.howell@reqres.in",
            "first_name": "Rachel",
            "last_name": "Howell",
            "avatar": "https://s3.amazonaws.com/uifaces/faces/twitter/hebertialmeida/128.jpg"
        }
    ]
}{
    "page": 6,
    "per_page": 3,
    "total": 12,
    "total_pages": 4,
    "data": []
}{
    "page": 8,
    "per_page": 3,
    "total": 12,
    "total_pages": 4,
    "data": []
}{
    "page": 10,
    "per_page": 3,
    "total": 12,
    "total_pages": 4,
    "data": []
}{
    "page": 12,
    "per_page": 3,
    "total": 12,
    "total_pages": 4,
    "data": []
}{
    "page": 14,
    "per_page": 3,
    "total": 12,
    "total_pages": 4,
    "data": []
}{
    "page": 16,
    "per_page": 3,
    "total": 12,
    "total_pages": 4,
    "data": []
}{
    "page": 18,
    "per_page": 3,
    "total": 12,
    "total_pages": 4,
    "data": []
}{
    "page": 2,
    "per_page": 3,
    "total": 12,
    "total_pages": 4,
    "data": [
        {
            "id": 4,
            "email": "eve.holt@reqres.in",
            "first_name": "Eve",
            "last_name": "Holt",
            "avatar": "https://s3.amazonaws.com/uifaces/faces/twitter/marcoramires/128.jpg"
        },
        {
            "id": 5,
            "email": "charles.morris@reqres.in",
            "first_name": "Charles",
            "last_name": "Morris",
            "avatar": "https://s3.amazonaws.com/uifaces/faces/twitter/stephenmoon/128.jpg"
        },
        {
            "id": 6,
            "email": "tracey.ramos@reqres.in",
            "first_name": "Tracey",
            "last_name": "Ramos",
            "avatar": "https://s3.amazonaws.com/uifaces/faces/twitter/bigmancho/128.jpg"
        }
    ]
}{
    "page": 4,
    "per_page": 3,
    "total": 12,
    "total_pages": 4,
    "data": [
        {
            "id": 10,
            "email": "byron.fields@reqres.in",
            "first_name": "Byron",
            "last_name": "Fields",
            "avatar": "https://s3.amazonaws.com/uifaces/faces/twitter/russoedu/128.jpg"
        },
        {
            "id": 11,
            "email": "george.edwards@reqres.in",
            "first_name": "George",
            "last_name": "Edwards",
            "avatar": "https://s3.amazonaws.com/uifaces/faces/twitter/mrmoiree/128.jpg"
        },
        {
            "id": 12,
            "email": "rachel.howell@reqres.in",
            "first_name": "Rachel",
            "last_name": "Howell",
            "avatar": "https://s3.amazonaws.com/uifaces/faces/twitter/hebertialmeida/128.jpg"
        }
    ]
}{
    "page": 6,
    "per_page": 3,
    "total": 12,
    "total_pages": 4,
    "data": []
}{
    "page": 8,
    "per_page": 3,
    "total": 12,
    "total_pages": 4,
    "data": []
}{
    "page": 10,
    "per_page": 3,
    "total": 12,
    "total_pages": 4,
    "data": []
}{
    "page": 12,
    "per_page": 3,
    "total": 12,
    "total_pages": 4,
    "data": []
}{
    "page": 14,
    "per_page": 3,
    "total": 12,
    "total_pages": 4,
    "data": []
}{
    "page": 16,
    "per_page": 3,
    "total": 12,
    "total_pages": 4,
    "data": []
}